<svg xmlns="http://www.w3.org/2000/svg" viewBox="0 0 14 12" width="14" height="12">
	<style>
		tspan { white-space:pre }
		.shp0 { fill: #ff9f03;stroke: #ff9f03;paint-order:stroke fill markers;stroke-linecap:round;stroke-width: 2 } 
	</style>
	<g id="Symbol 10 – 1">
		<path id="Path 22" class="shp0" d="M1.14,6.61l3.65,3.66l7.84,-7.84l-0.92,-0.92l-6.93,6.93l-2.74,-2.71z" />
	</g>
</svg>